<?xml version="1.0" encoding="UTF-8" standalone="no"?>
<svg
   xmlns:dc="http://purl.org/dc/elements/1.1/"
   xmlns:cc="http://creativecommons.org/ns#"
   xmlns:rdf="http://www.w3.org/1999/02/22-rdf-syntax-ns#"
   xmlns:svg="http://www.w3.org/2000/svg"
   xmlns="http://www.w3.org/2000/svg"
   xmlns:xlink="http://www.w3.org/1999/xlink"
   xmlns:sodipodi="http://sodipodi.sourceforge.net/DTD/sodipodi-0.dtd"
   xmlns:inkscape="http://www.inkscape.org/namespaces/inkscape"
   version="1.1"
   id="svg2"
   width="469.09415"
   height="443.18649"
   viewBox="0 0 469.09415 443.1865"
   sodipodi:docname="fig3_fall_diff_t_air_leaf.svg"
   inkscape:version="1.0.1 (3bc2e813f5, 2020-09-07)">
  <metadata
     id="metadata8">
    <rdf:RDF>
      <cc:Work
         rdf:about="">
        <dc:format>image/svg+xml</dc:format>
        <dc:type
           rdf:resource="http://purl.org/dc/dcmitype/StillImage" />
        <dc:title />
      </cc:Work>
    </rdf:RDF>
  </metadata>
  <defs
     id="defs6">
    <marker
       inkscape:isstock="true"
       style="overflow:visible"
       id="marker1182"
       refX="0"
       refY="0"
       orient="auto"
       inkscape:stockid="Arrow1Send">
      <path
         transform="matrix(-0.2,0,0,-0.2,-1.2,0)"
         style="fill:#ff0000;fill-opacity:1;fill-rule:evenodd;stroke:#ff0000;stroke-width:1.00000003pt;stroke-opacity:1"
         d="M 0,0 5,-5 -12.5,0 5,5 Z"
         id="path1180"
         inkscape:connector-curvature="0" />
    </marker>
    <marker
       inkscape:stockid="Arrow1Send"
       orient="auto"
       refY="0"
       refX="0"
       id="Arrow1Send"
       style="overflow:visible"
       inkscape:isstock="true"
       inkscape:collect="always">
      <path
         id="path836"
         d="M 0,0 5,-5 -12.5,0 5,5 Z"
         style="fill:#ff0000;fill-opacity:1;fill-rule:evenodd;stroke:#ff0000;stroke-width:1.00000003pt;stroke-opacity:1"
         transform="matrix(-0.2,0,0,-0.2,-1.2,0)"
         inkscape:connector-curvature="0" />
    </marker>
  </defs>
  <sodipodi:namedview
     pagecolor="#ffffff"
     bordercolor="#666666"
     borderopacity="1"
     objecttolerance="10"
     gridtolerance="10"
     guidetolerance="10"
     inkscape:pageopacity="0"
     inkscape:pageshadow="2"
     inkscape:window-width="1850"
     inkscape:window-height="1016"
     id="namedview4"
     showgrid="false"
     inkscape:zoom="0.94316954"
     inkscape:cx="246.1254"
     inkscape:cy="392.82994"
     inkscape:current-layer="layer3"
     fit-margin-top="0"
     fit-margin-left="0"
     fit-margin-right="0"
     fit-margin-bottom="0"
     inkscape:window-x="70"
     inkscape:window-y="27"
     inkscape:window-maximized="1"
     inkscape:document-rotation="0" />
  <g
     inkscape:groupmode="layer"
     id="layer4"
     inkscape:label="figure"
     transform="translate(-1034.5958,-347.04056)"
     style="display:inline"
     sodipodi:insensitive="true">
    <image
       sodipodi:absref="C:\Users\jchopard\Documents\work\sunagri\dvlpt\data\data_alsina_2011\src\data_alsina_2011\raw\fig3_fall.png"
       xlink:href="fig3_fall.png"
       y="3.1866801"
       x="0.14693217"
       id="image901"
       preserveAspectRatio="none"
       height="776"
       width="1461" />
  </g>
  <g
     inkscape:groupmode="layer"
     id="layer2"
     inkscape:label="x_axis"
     style="display:inline"
     transform="translate(-1034.5958,-347.04056)"
     sodipodi:insensitive="true">
    <path
       style="opacity:1;fill:none;fill-opacity:1;stroke:#ff0000;stroke-width:3;stroke-linecap:butt;stroke-miterlimit:4;stroke-dasharray:none;stroke-dashoffset:0;stroke-opacity:1;marker-end:url(#Arrow1Send)"
       d="m 1101.0671,740.63166 h 353.6125"
       id="path819"
       inkscape:connector-curvature="0" />
    <g
       id="g1149"
       transform="translate(998.57244,354)">
      <text
         id="text1115"
         y="403.3284"
         x="98.282082"
         style="font-style:normal;font-weight:normal;font-size:24px;line-height:125%;font-family:sans-serif;letter-spacing:0px;word-spacing:0px;fill:#000000;fill-opacity:1;stroke:none;stroke-width:1px;stroke-linecap:butt;stroke-linejoin:miter;stroke-opacity:1"
         xml:space="preserve"><tspan
           style="font-size:10.6667px"
           y="403.3284"
           x="98.282082"
           id="tspan1113"
           sodipodi:role="line">04:00</tspan></text>
      <path
         inkscape:connector-curvature="0"
         id="path1103"
         d="m 114.2925,380.61526 v 12.46996"
         style="opacity:1;fill:none;fill-opacity:1;stroke:#ff0000;stroke-width:3;stroke-linecap:butt;stroke-miterlimit:4;stroke-dasharray:none;stroke-dashoffset:0;stroke-opacity:1" />
    </g>
    <g
       id="g1142"
       transform="translate(998.57244,352)">
      <text
         xml:space="preserve"
         style="font-style:normal;font-weight:normal;font-size:24px;line-height:125%;font-family:sans-serif;letter-spacing:0px;word-spacing:0px;fill:#000000;fill-opacity:1;stroke:none;stroke-width:1px;stroke-linecap:butt;stroke-linejoin:miter;stroke-opacity:1"
         x="179.68738"
         y="403.3284"
         id="text1119"><tspan
           sodipodi:role="line"
           id="tspan1117"
           x="179.68738"
           y="403.3284"
           style="font-size:10.6667px">08:00</tspan></text>
      <path
         style="opacity:1;fill:none;fill-opacity:1;stroke:#ff0000;stroke-width:3;stroke-linecap:butt;stroke-miterlimit:4;stroke-dasharray:none;stroke-dashoffset:0;stroke-opacity:1"
         d="m 195.69779,380.61526 v 12.46996"
         id="path1105"
         inkscape:connector-curvature="0" />
    </g>
    <g
       id="g1156"
       transform="translate(996.57244,352)">
      <text
         xml:space="preserve"
         style="font-style:normal;font-weight:normal;font-size:24px;line-height:125%;font-family:sans-serif;letter-spacing:0px;word-spacing:0px;fill:#000000;fill-opacity:1;stroke:none;stroke-width:1px;stroke-linecap:butt;stroke-linejoin:miter;stroke-opacity:1"
         x="340.55618"
         y="403.3284"
         id="text1127"><tspan
           sodipodi:role="line"
           id="tspan1125"
           x="340.55618"
           y="403.3284"
           style="font-size:10.6667px">16:00</tspan></text>
      <path
         style="opacity:1;fill:none;fill-opacity:1;stroke:#ff0000;stroke-width:3;stroke-linecap:butt;stroke-miterlimit:4;stroke-dasharray:none;stroke-dashoffset:0;stroke-opacity:1"
         d="m 356.9338,380.61526 v 12.46996"
         id="path1109"
         inkscape:connector-curvature="0" />
    </g>
    <g
       id="g1170"
       transform="translate(996.57244,352)">
      <text
         id="text1131"
         y="403.3284"
         x="421.47888"
         style="font-style:normal;font-weight:normal;font-size:24px;line-height:125%;font-family:sans-serif;letter-spacing:0px;word-spacing:0px;fill:#000000;fill-opacity:1;stroke:none;stroke-width:1px;stroke-linecap:butt;stroke-linejoin:miter;stroke-opacity:1"
         xml:space="preserve"><tspan
           style="font-size:10.6667px"
           y="403.3284"
           x="421.47888"
           id="tspan1129"
           sodipodi:role="line">20:00</tspan></text>
      <path
         inkscape:connector-curvature="0"
         id="path1111"
         d="m 437.55181,380.61526 v 12.46996"
         style="opacity:1;fill:none;fill-opacity:1;stroke:#ff0000;stroke-width:3;stroke-linecap:butt;stroke-miterlimit:4;stroke-dasharray:none;stroke-dashoffset:0;stroke-opacity:1" />
    </g>
    <g
       id="g901"
       transform="translate(996.57244,352)">
      <path
         inkscape:connector-curvature="0"
         id="path1107"
         d="m 276.47325,380.61526 v 12.46996"
         style="opacity:1;fill:none;fill-opacity:1;stroke:#ff0000;stroke-width:3;stroke-linecap:butt;stroke-miterlimit:4;stroke-dasharray:none;stroke-dashoffset:0;stroke-opacity:1" />
      <text
         id="text1123"
         y="403.3284"
         x="260.09564"
         style="font-style:normal;font-weight:normal;font-size:24px;line-height:125%;font-family:sans-serif;letter-spacing:0px;word-spacing:0px;fill:#000000;fill-opacity:1;stroke:none;stroke-width:1px;stroke-linecap:butt;stroke-linejoin:miter;stroke-opacity:1"
         xml:space="preserve"><tspan
           style="font-size:10.6667px"
           y="403.3284"
           x="260.09564"
           id="tspan1121"
           sodipodi:role="line">12:00</tspan></text>
    </g>
  </g>
  <g
     inkscape:groupmode="layer"
     id="layer1"
     inkscape:label="y_axis"
     style="display:inline"
     transform="translate(-1034.5958,-347.04056)"
     sodipodi:insensitive="true">
    <path
       style="opacity:1;fill:none;fill-opacity:1;stroke:#ff0000;stroke-width:3;stroke-linecap:butt;stroke-miterlimit:4;stroke-dasharray:none;stroke-dashoffset:0;stroke-opacity:1;marker-end:url(#marker1182)"
       d="M 1102.517,740.18631 V 385.68311"
       id="path1172"
       inkscape:connector-curvature="0" />
    <g
       id="g1272"
       transform="translate(998.02228,327.52738)">
      <path
         inkscape:connector-curvature="0"
         id="path1208"
         d="M 98.259695,358.34747 H 110.72966"
         style="opacity:1;fill:none;fill-opacity:1;stroke:#ff0000;stroke-width:3;stroke-linecap:butt;stroke-miterlimit:4;stroke-dasharray:none;stroke-dashoffset:0;stroke-opacity:1" />
      <text
         id="text1222"
         y="363.19122"
         x="67.308731"
         style="font-style:normal;font-weight:normal;font-size:24px;line-height:125%;font-family:sans-serif;letter-spacing:0px;word-spacing:0px;fill:#000000;fill-opacity:1;stroke:none;stroke-width:1px;stroke-linecap:butt;stroke-linejoin:miter;stroke-opacity:1"
         xml:space="preserve"><tspan
           style="font-size:13.3333px"
           y="363.19122"
           x="67.308731"
           id="tspan1220"
           sodipodi:role="line">-1</tspan></text>
    </g>
    <g
       id="g1267"
       transform="translate(998.02228,332.46584)">
      <path
         style="opacity:1;fill:none;fill-opacity:1;stroke:#ff0000;stroke-width:3;stroke-linecap:butt;stroke-miterlimit:4;stroke-dasharray:none;stroke-dashoffset:0;stroke-opacity:1"
         d="M 98.259695,299.30108 H 110.72966"
         id="path1210"
         inkscape:connector-curvature="0" />
      <text
         xml:space="preserve"
         style="font-style:normal;font-weight:normal;font-size:24px;line-height:125%;font-family:sans-serif;letter-spacing:0px;word-spacing:0px;fill:#000000;fill-opacity:1;stroke:none;stroke-width:1px;stroke-linecap:butt;stroke-linejoin:miter;stroke-opacity:1"
         x="67.308731"
         y="304.14484"
         id="text1226"><tspan
           sodipodi:role="line"
           id="tspan1224"
           x="67.308731"
           y="304.14484"
           style="font-size:13.3333px">0</tspan></text>
    </g>
    <g
       id="g1262"
       transform="translate(998.02228,336.49814)">
      <path
         inkscape:connector-curvature="0"
         id="path1212"
         d="M 98.259695,241.04197 H 110.72966"
         style="opacity:1;fill:none;fill-opacity:1;stroke:#ff0000;stroke-width:3;stroke-linecap:butt;stroke-miterlimit:4;stroke-dasharray:none;stroke-dashoffset:0;stroke-opacity:1" />
      <text
         id="text1230"
         y="245.88898"
         x="67.308731"
         style="font-style:normal;font-weight:normal;font-size:24px;line-height:125%;font-family:sans-serif;letter-spacing:0px;word-spacing:0px;fill:#000000;fill-opacity:1;stroke:none;stroke-width:1px;stroke-linecap:butt;stroke-linejoin:miter;stroke-opacity:1"
         xml:space="preserve"><tspan
           style="font-size:13.3333px"
           y="245.88898"
           x="67.308731"
           id="tspan1228"
           sodipodi:role="line">1</tspan></text>
    </g>
    <g
       id="g1252"
       transform="translate(998.02228,400.51785)">
      <path
         inkscape:connector-curvature="0"
         id="path1216"
         d="M 98.259695,122.63427 H 110.72966"
         style="opacity:1;fill:none;fill-opacity:1;stroke:#ff0000;stroke-width:3;stroke-linecap:butt;stroke-miterlimit:4;stroke-dasharray:none;stroke-dashoffset:0;stroke-opacity:1" />
      <text
         id="text1238"
         y="127.47802"
         x="67.308731"
         style="font-style:normal;font-weight:normal;font-size:24px;line-height:125%;font-family:sans-serif;letter-spacing:0px;word-spacing:0px;fill:#000000;fill-opacity:1;stroke:none;stroke-width:1px;stroke-linecap:butt;stroke-linejoin:miter;stroke-opacity:1"
         xml:space="preserve"><tspan
           style="font-size:13.3333px"
           y="127.47802"
           x="67.308731"
           id="tspan1236"
           sodipodi:role="line">2</tspan></text>
    </g>
    <g
       id="g1247"
       transform="translate(998.02228,350)">
      <path
         style="opacity:1;fill:none;fill-opacity:1;stroke:#ff0000;stroke-width:3;stroke-linecap:butt;stroke-miterlimit:4;stroke-dasharray:none;stroke-dashoffset:0;stroke-opacity:1"
         d="M 98.259695,63.745335 H 110.72966"
         id="path1218"
         inkscape:connector-curvature="0" />
      <text
         xml:space="preserve"
         style="font-style:normal;font-weight:normal;font-size:24px;line-height:125%;font-family:sans-serif;letter-spacing:0px;word-spacing:0px;fill:#000000;fill-opacity:1;stroke:none;stroke-width:1px;stroke-linecap:butt;stroke-linejoin:miter;stroke-opacity:1"
         x="67.308731"
         y="68.589088"
         id="text1242"><tspan
           sodipodi:role="line"
           id="tspan1240"
           x="67.308731"
           y="68.589088"
           style="font-size:13.3333px">4</tspan></text>
    </g>
    <g
       style="display:inline"
       id="g1247-3"
       transform="translate(995.0549,404.53058)">
      <path
         style="opacity:1;fill:none;fill-opacity:1;stroke:#ff0000;stroke-width:3;stroke-linecap:butt;stroke-miterlimit:4;stroke-dasharray:none;stroke-dashoffset:0;stroke-opacity:1"
         d="M 98.259695,63.745335 H 110.72966"
         id="path1218-6"
         inkscape:connector-curvature="0" />
      <text
         xml:space="preserve"
         style="font-style:normal;font-weight:normal;font-size:24px;line-height:125%;font-family:sans-serif;letter-spacing:0px;word-spacing:0px;fill:#000000;fill-opacity:1;stroke:none;stroke-width:1px;stroke-linecap:butt;stroke-linejoin:miter;stroke-opacity:1"
         x="67.308731"
         y="68.589088"
         id="text1242-7"><tspan
           sodipodi:role="line"
           id="tspan1240-5"
           x="67.308731"
           y="68.589088"
           style="font-size:13.3333px">3</tspan></text>
    </g>
    <g
       style="display:inline"
       id="g1247-3-3"
       transform="translate(997.0549,676.53058)">
      <path
         style="opacity:1;fill:none;fill-opacity:1;stroke:#ff0000;stroke-width:3;stroke-linecap:butt;stroke-miterlimit:4;stroke-dasharray:none;stroke-dashoffset:0;stroke-opacity:1"
         d="M 98.259695,63.745335 H 110.72966"
         id="path1218-6-5"
         inkscape:connector-curvature="0" />
      <text
         xml:space="preserve"
         style="font-style:normal;font-weight:normal;font-size:24px;line-height:125%;font-family:sans-serif;letter-spacing:0px;word-spacing:0px;fill:#000000;fill-opacity:1;stroke:none;stroke-width:1px;stroke-linecap:butt;stroke-linejoin:miter;stroke-opacity:1"
         x="67.308731"
         y="68.589088"
         id="text1242-7-6"><tspan
           sodipodi:role="line"
           id="tspan1240-5-2"
           x="67.308731"
           y="68.589088"
           style="font-size:13.3333px">-2</tspan></text>
    </g>
  </g>
  <g
     inkscape:groupmode="layer"
     id="layer3"
     inkscape:label="berlandieri"
     style="display:none"
     transform="translate(-1034.5958,-347.04056)"
     sodipodi:insensitive="true">
    <circle
       style="opacity:1;fill:none;fill-opacity:1;stroke:#8a0000;stroke-width:3;stroke-linecap:butt;stroke-miterlimit:4;stroke-dasharray:none;stroke-dashoffset:0;stroke-opacity:1"
       id="path1274"
       cx="1135.5051"
       cy="564.39587"
       r="8.907115" />
    <circle
       r="8.907115"
       cy="561.82007"
       cx="1196.0454"
       id="circle1276"
       style="opacity:1;fill:none;fill-opacity:1;stroke:#8a0000;stroke-width:3;stroke-linecap:butt;stroke-miterlimit:4;stroke-dasharray:none;stroke-dashoffset:0;stroke-opacity:1" />
    <circle
       style="opacity:1;fill:none;fill-opacity:1;stroke:#8a0000;stroke-width:3;stroke-linecap:butt;stroke-miterlimit:4;stroke-dasharray:none;stroke-dashoffset:0;stroke-opacity:1"
       id="circle1278"
       cx="1226.0814"
       cy="678.77045"
       r="8.907115" />
    <circle
       r="8.907115"
       cy="620.88831"
       cx="1253.2859"
       id="circle1280"
       style="opacity:1;fill:none;fill-opacity:1;stroke:#8a0000;stroke-width:3;stroke-linecap:butt;stroke-miterlimit:4;stroke-dasharray:none;stroke-dashoffset:0;stroke-opacity:1" />
    <circle
       style="opacity:1;fill:none;fill-opacity:1;stroke:#8a0000;stroke-width:3;stroke-linecap:butt;stroke-miterlimit:4;stroke-dasharray:none;stroke-dashoffset:0;stroke-opacity:1"
       id="circle1282"
       cx="1277.2922"
       cy="659.74664"
       r="8.907115" />
    <circle
       r="8.907115"
       cy="697.90674"
       cx="1316.4758"
       id="circle1284"
       style="opacity:1;fill:none;fill-opacity:1;stroke:#8a0000;stroke-width:3;stroke-linecap:butt;stroke-miterlimit:4;stroke-dasharray:none;stroke-dashoffset:0;stroke-opacity:1" />
    <circle
       style="opacity:1;fill:none;fill-opacity:1;stroke:#8a0000;stroke-width:3;stroke-linecap:butt;stroke-miterlimit:4;stroke-dasharray:none;stroke-dashoffset:0;stroke-opacity:1"
       id="circle1286"
       cx="1339.928"
       cy="681.41956"
       r="8.907115" />
    <circle
       style="display:inline;opacity:1;fill:none;fill-opacity:1;stroke:#8a0000;stroke-width:3;stroke-linecap:butt;stroke-miterlimit:4;stroke-dasharray:none;stroke-dashoffset:0;stroke-opacity:1"
       id="circle1286-9"
       cx="1376.4259"
       cy="618.64069"
       r="8.907115" />
  </g>
  <g
     transform="translate(-1034.5958,-347.04056)"
     style="display:inline"
     inkscape:label="riparia"
     id="g1310"
     inkscape:groupmode="layer">
    <circle
       r="8.907115"
       cy="564.49445"
       cx="1135.5051"
       id="circle1292"
       style="opacity:1;fill:none;fill-opacity:1;stroke:#ff4344;stroke-width:3;stroke-linecap:butt;stroke-miterlimit:4;stroke-dasharray:none;stroke-dashoffset:0;stroke-opacity:1" />
    <circle
       style="opacity:1;fill:none;fill-opacity:1;stroke:#ff4344;stroke-width:3;stroke-linecap:butt;stroke-miterlimit:4;stroke-dasharray:none;stroke-dashoffset:0;stroke-opacity:1"
       id="circle1294"
       cx="1196.791"
       cy="562.95807"
       r="8.907115" />
    <circle
       r="8.907115"
       cy="683.09778"
       cx="1227.2686"
       id="circle1296"
       style="opacity:1;fill:none;fill-opacity:1;stroke:#ff4344;stroke-width:3;stroke-linecap:butt;stroke-miterlimit:4;stroke-dasharray:none;stroke-dashoffset:0;stroke-opacity:1" />
    <circle
       style="opacity:1;fill:none;fill-opacity:1;stroke:#ff4344;stroke-width:3;stroke-linecap:butt;stroke-miterlimit:4;stroke-dasharray:none;stroke-dashoffset:0;stroke-opacity:1"
       id="circle1298"
       cx="1253.9641"
       cy="643.14264"
       r="8.907115" />
    <circle
       style="opacity:1;fill:none;fill-opacity:1;stroke:#ff4344;stroke-width:3;stroke-linecap:butt;stroke-miterlimit:4;stroke-dasharray:none;stroke-dashoffset:0;stroke-opacity:1"
       id="circle1302"
       cx="1278.0305"
       cy="655.67932"
       r="8.907115" />
    <circle
       r="8.907115"
       cy="689.50342"
       cx="1314.6528"
       id="circle1304"
       style="opacity:1;fill:none;fill-opacity:1;stroke:#ff4344;stroke-width:3;stroke-linecap:butt;stroke-miterlimit:4;stroke-dasharray:none;stroke-dashoffset:0;stroke-opacity:1" />
    <circle
       r="8.907115"
       cy="625.0625"
       cx="1376.7323"
       id="circle1304-1"
       style="display:inline;opacity:1;fill:none;fill-opacity:1;stroke:#ff4344;stroke-width:3;stroke-linecap:butt;stroke-miterlimit:4;stroke-dasharray:none;stroke-dashoffset:0;stroke-opacity:1" />
    <circle
       r="8.907115"
       cy="681.0625"
       cx="1340.7323"
       id="circle1304-1-2"
       style="display:inline;opacity:1;fill:none;fill-opacity:1;stroke:#ff4344;stroke-width:3;stroke-linecap:butt;stroke-miterlimit:4;stroke-dasharray:none;stroke-dashoffset:0;stroke-opacity:1" />
  </g>
</svg>
