<?xml version="1.0" encoding="UTF-8" standalone="no"?>
<svg
   xmlns:dc="http://purl.org/dc/elements/1.1/"
   xmlns:cc="http://creativecommons.org/ns#"
   xmlns:rdf="http://www.w3.org/1999/02/22-rdf-syntax-ns#"
   xmlns:svg="http://www.w3.org/2000/svg"
   xmlns="http://www.w3.org/2000/svg"
   xmlns:xlink="http://www.w3.org/1999/xlink"
   xmlns:sodipodi="http://sodipodi.sourceforge.net/DTD/sodipodi-0.dtd"
   xmlns:inkscape="http://www.inkscape.org/namespaces/inkscape"
   version="1.1"
   id="svg2"
   width="546.33405"
   height="460.82574"
   viewBox="0 0 546.33405 460.82575"
   sodipodi:docname="fig3_spring_an.svg"
   inkscape:version="1.0.1 (3bc2e813f5, 2020-09-07)">
  <metadata
     id="metadata8">
    <rdf:RDF>
      <cc:Work
         rdf:about="">
        <dc:format>image/svg+xml</dc:format>
        <dc:type
           rdf:resource="http://purl.org/dc/dcmitype/StillImage" />
        <dc:title />
      </cc:Work>
    </rdf:RDF>
  </metadata>
  <defs
     id="defs6">
    <marker
       inkscape:isstock="true"
       style="overflow:visible"
       id="marker1182"
       refX="0"
       refY="0"
       orient="auto"
       inkscape:stockid="Arrow1Send">
      <path
         transform="matrix(-0.2,0,0,-0.2,-1.2,0)"
         style="fill:#ff0000;fill-opacity:1;fill-rule:evenodd;stroke:#ff0000;stroke-width:1.00000003pt;stroke-opacity:1"
         d="M 0,0 5,-5 -12.5,0 5,5 Z"
         id="path1180"
         inkscape:connector-curvature="0" />
    </marker>
    <marker
       inkscape:stockid="Arrow1Send"
       orient="auto"
       refY="0"
       refX="0"
       id="Arrow1Send"
       style="overflow:visible"
       inkscape:isstock="true"
       inkscape:collect="always">
      <path
         id="path836"
         d="M 0,0 5,-5 -12.5,0 5,5 Z"
         style="fill:#ff0000;fill-opacity:1;fill-rule:evenodd;stroke:#ff0000;stroke-width:1.00000003pt;stroke-opacity:1"
         transform="matrix(-0.2,0,0,-0.2,-1.2,0)"
         inkscape:connector-curvature="0" />
    </marker>
  </defs>
  <sodipodi:namedview
     pagecolor="#ffffff"
     bordercolor="#666666"
     borderopacity="1"
     objecttolerance="10"
     gridtolerance="10"
     guidetolerance="10"
     inkscape:pageopacity="0"
     inkscape:pageshadow="2"
     inkscape:window-width="640"
     inkscape:window-height="480"
     id="namedview4"
     showgrid="false"
     inkscape:zoom="1.3794563"
     inkscape:cx="86.338814"
     inkscape:cy="289.97007"
     inkscape:current-layer="layer3"
     fit-margin-top="0"
     fit-margin-left="0"
     fit-margin-right="0"
     fit-margin-bottom="0"
     inkscape:document-rotation="0" />
  <g
     inkscape:groupmode="layer"
     id="layer4"
     inkscape:label="figure"
     transform="translate(-476.20282,35.510971)"
     sodipodi:insensitive="true">
    <image
       sodipodi:absref="C:\Users\jchopard\Documents\work\sunagri\dvlpt\data\data_alsina_2011\src\data_alsina_2011\raw\fig3_spring.png"
       xlink:href="fig3_spring.png"
       width="1457"
       height="780"
       preserveAspectRatio="none"
       id="image10"
       x="0"
       y="0" />
  </g>
  <g
     inkscape:groupmode="layer"
     id="layer2"
     inkscape:label="x_axis"
     style="display:inline"
     transform="translate(-476.20282,35.510971)"
     sodipodi:insensitive="true">
    <path
       style="opacity:1;fill:none;fill-opacity:1;stroke:#ff0000;stroke-width:3;stroke-linecap:butt;stroke-miterlimit:4;stroke-dasharray:none;stroke-dashoffset:0;stroke-opacity:1;marker-end:url(#Arrow1Send)"
       d="M 601.06712,388.63166 H 954.67961"
       id="path819"
       inkscape:connector-curvature="0" />
    <g
       id="g1149"
       transform="translate(496.57244)">
      <text
         id="text1115"
         y="403.3284"
         x="98.282082"
         style="font-style:normal;font-weight:normal;font-size:24px;line-height:125%;font-family:sans-serif;letter-spacing:0px;word-spacing:0px;fill:#000000;fill-opacity:1;stroke:none;stroke-width:1px;stroke-linecap:butt;stroke-linejoin:miter;stroke-opacity:1"
         xml:space="preserve"><tspan
           style="font-size:10.6667px"
           y="403.3284"
           x="98.282082"
           id="tspan1113"
           sodipodi:role="line">04:00</tspan></text>
      <path
         inkscape:connector-curvature="0"
         id="path1103"
         d="m 114.2925,380.61526 v 12.46996"
         style="opacity:1;fill:none;fill-opacity:1;stroke:#ff0000;stroke-width:3;stroke-linecap:butt;stroke-miterlimit:4;stroke-dasharray:none;stroke-dashoffset:0;stroke-opacity:1" />
    </g>
    <g
       id="g1142"
       transform="translate(496.57244)">
      <text
         xml:space="preserve"
         style="font-style:normal;font-weight:normal;font-size:24px;line-height:125%;font-family:sans-serif;letter-spacing:0px;word-spacing:0px;fill:#000000;fill-opacity:1;stroke:none;stroke-width:1px;stroke-linecap:butt;stroke-linejoin:miter;stroke-opacity:1"
         x="179.68738"
         y="403.3284"
         id="text1119"><tspan
           sodipodi:role="line"
           id="tspan1117"
           x="179.68738"
           y="403.3284"
           style="font-size:10.6667px">08:00</tspan></text>
      <path
         style="opacity:1;fill:none;fill-opacity:1;stroke:#ff0000;stroke-width:3;stroke-linecap:butt;stroke-miterlimit:4;stroke-dasharray:none;stroke-dashoffset:0;stroke-opacity:1"
         d="m 195.69779,380.61526 v 12.46996"
         id="path1105"
         inkscape:connector-curvature="0" />
    </g>
    <g
       id="g1156"
       transform="translate(496.57244)">
      <text
         xml:space="preserve"
         style="font-style:normal;font-weight:normal;font-size:24px;line-height:125%;font-family:sans-serif;letter-spacing:0px;word-spacing:0px;fill:#000000;fill-opacity:1;stroke:none;stroke-width:1px;stroke-linecap:butt;stroke-linejoin:miter;stroke-opacity:1"
         x="340.55618"
         y="403.3284"
         id="text1127"><tspan
           sodipodi:role="line"
           id="tspan1125"
           x="340.55618"
           y="403.3284"
           style="font-size:10.6667px">16:00</tspan></text>
      <path
         style="opacity:1;fill:none;fill-opacity:1;stroke:#ff0000;stroke-width:3;stroke-linecap:butt;stroke-miterlimit:4;stroke-dasharray:none;stroke-dashoffset:0;stroke-opacity:1"
         d="m 356.9338,380.61526 v 12.46996"
         id="path1109"
         inkscape:connector-curvature="0" />
    </g>
    <g
       id="g1170"
       transform="translate(496.57244)">
      <text
         id="text1131"
         y="403.3284"
         x="421.47888"
         style="font-style:normal;font-weight:normal;font-size:24px;line-height:125%;font-family:sans-serif;letter-spacing:0px;word-spacing:0px;fill:#000000;fill-opacity:1;stroke:none;stroke-width:1px;stroke-linecap:butt;stroke-linejoin:miter;stroke-opacity:1"
         xml:space="preserve"><tspan
           style="font-size:10.6667px"
           y="403.3284"
           x="421.47888"
           id="tspan1129"
           sodipodi:role="line">20:00</tspan></text>
      <path
         inkscape:connector-curvature="0"
         id="path1111"
         d="m 437.55181,380.61526 v 12.46996"
         style="opacity:1;fill:none;fill-opacity:1;stroke:#ff0000;stroke-width:3;stroke-linecap:butt;stroke-miterlimit:4;stroke-dasharray:none;stroke-dashoffset:0;stroke-opacity:1" />
    </g>
    <g
       id="g901"
       transform="translate(496.57244)">
      <path
         inkscape:connector-curvature="0"
         id="path1107"
         d="m 276.47325,380.61526 v 12.46996"
         style="opacity:1;fill:none;fill-opacity:1;stroke:#ff0000;stroke-width:3;stroke-linecap:butt;stroke-miterlimit:4;stroke-dasharray:none;stroke-dashoffset:0;stroke-opacity:1" />
      <text
         id="text1123"
         y="403.3284"
         x="260.09564"
         style="font-style:normal;font-weight:normal;font-size:24px;line-height:125%;font-family:sans-serif;letter-spacing:0px;word-spacing:0px;fill:#000000;fill-opacity:1;stroke:none;stroke-width:1px;stroke-linecap:butt;stroke-linejoin:miter;stroke-opacity:1"
         xml:space="preserve"><tspan
           style="font-size:10.6667px"
           y="403.3284"
           x="260.09564"
           id="tspan1121"
           sodipodi:role="line">12:00</tspan></text>
    </g>
  </g>
  <g
     inkscape:groupmode="layer"
     id="layer1"
     inkscape:label="y_axis"
     style="display:inline"
     transform="translate(-476.20282,35.510971)"
     sodipodi:insensitive="true">
    <path
       style="opacity:1;fill:none;fill-opacity:1;stroke:#ff0000;stroke-width:3;stroke-linecap:butt;stroke-miterlimit:4;stroke-dasharray:none;stroke-dashoffset:0;stroke-opacity:1;marker-end:url(#marker1182)"
       d="M 602.51696,388.18631 V 33.683107"
       id="path1172"
       inkscape:connector-curvature="0" />
    <g
       id="g1272"
       transform="translate(498.02228,-22.472621)">
      <path
         inkscape:connector-curvature="0"
         id="path1208"
         d="M 98.259695,358.34747 H 110.72966"
         style="opacity:1;fill:none;fill-opacity:1;stroke:#ff0000;stroke-width:3;stroke-linecap:butt;stroke-miterlimit:4;stroke-dasharray:none;stroke-dashoffset:0;stroke-opacity:1" />
      <text
         id="text1222"
         y="363.19122"
         x="67.308731"
         style="font-style:normal;font-weight:normal;font-size:24px;line-height:125%;font-family:sans-serif;letter-spacing:0px;word-spacing:0px;fill:#000000;fill-opacity:1;stroke:none;stroke-width:1px;stroke-linecap:butt;stroke-linejoin:miter;stroke-opacity:1"
         xml:space="preserve"><tspan
           style="font-size:13.3333px"
           y="363.19122"
           x="67.308731"
           id="tspan1220"
           sodipodi:role="line">0</tspan></text>
    </g>
    <g
       id="g1267"
       transform="translate(498.02228,-31.534162)">
      <path
         style="opacity:1;fill:none;fill-opacity:1;stroke:#ff0000;stroke-width:3;stroke-linecap:butt;stroke-miterlimit:4;stroke-dasharray:none;stroke-dashoffset:0;stroke-opacity:1"
         d="M 98.259695,299.30108 H 110.72966"
         id="path1210"
         inkscape:connector-curvature="0" />
      <text
         xml:space="preserve"
         style="font-style:normal;font-weight:normal;font-size:24px;line-height:125%;font-family:sans-serif;letter-spacing:0px;word-spacing:0px;fill:#000000;fill-opacity:1;stroke:none;stroke-width:1px;stroke-linecap:butt;stroke-linejoin:miter;stroke-opacity:1"
         x="67.308731"
         y="304.14484"
         id="text1226"><tspan
           sodipodi:role="line"
           id="tspan1224"
           x="67.308731"
           y="304.14484"
           style="font-size:13.3333px">5</tspan></text>
    </g>
    <g
       id="g1262"
       transform="translate(498.02228,-41.501857)">
      <path
         inkscape:connector-curvature="0"
         id="path1212"
         d="M 98.259695,241.04197 H 110.72966"
         style="opacity:1;fill:none;fill-opacity:1;stroke:#ff0000;stroke-width:3;stroke-linecap:butt;stroke-miterlimit:4;stroke-dasharray:none;stroke-dashoffset:0;stroke-opacity:1" />
      <text
         id="text1230"
         y="245.88898"
         x="67.308731"
         style="font-style:normal;font-weight:normal;font-size:24px;line-height:125%;font-family:sans-serif;letter-spacing:0px;word-spacing:0px;fill:#000000;fill-opacity:1;stroke:none;stroke-width:1px;stroke-linecap:butt;stroke-linejoin:miter;stroke-opacity:1"
         xml:space="preserve"><tspan
           style="font-size:13.3333px"
           y="245.88898"
           x="67.308731"
           id="tspan1228"
           sodipodi:role="line">10</tspan></text>
    </g>
    <g
       id="g1252"
       transform="translate(498.02228,8.5178484)">
      <path
         inkscape:connector-curvature="0"
         id="path1216"
         d="M 98.259695,122.63427 H 110.72966"
         style="opacity:1;fill:none;fill-opacity:1;stroke:#ff0000;stroke-width:3;stroke-linecap:butt;stroke-miterlimit:4;stroke-dasharray:none;stroke-dashoffset:0;stroke-opacity:1" />
      <text
         id="text1238"
         y="127.47802"
         x="67.308731"
         style="font-style:normal;font-weight:normal;font-size:24px;line-height:125%;font-family:sans-serif;letter-spacing:0px;word-spacing:0px;fill:#000000;fill-opacity:1;stroke:none;stroke-width:1px;stroke-linecap:butt;stroke-linejoin:miter;stroke-opacity:1"
         xml:space="preserve"><tspan
           style="font-size:13.3333px"
           y="127.47802"
           x="67.308731"
           id="tspan1236"
           sodipodi:role="line">15</tspan></text>
    </g>
    <g
       id="g1247"
       transform="translate(498.02228)">
      <path
         style="opacity:1;fill:none;fill-opacity:1;stroke:#ff0000;stroke-width:3;stroke-linecap:butt;stroke-miterlimit:4;stroke-dasharray:none;stroke-dashoffset:0;stroke-opacity:1"
         d="M 98.259695,63.745335 H 110.72966"
         id="path1218"
         inkscape:connector-curvature="0" />
      <text
         xml:space="preserve"
         style="font-style:normal;font-weight:normal;font-size:24px;line-height:125%;font-family:sans-serif;letter-spacing:0px;word-spacing:0px;fill:#000000;fill-opacity:1;stroke:none;stroke-width:1px;stroke-linecap:butt;stroke-linejoin:miter;stroke-opacity:1"
         x="67.308731"
         y="68.589088"
         id="text1242"><tspan
           sodipodi:role="line"
           id="tspan1240"
           x="67.308731"
           y="68.589088"
           style="font-size:13.3333px">20</tspan></text>
    </g>
  </g>
  <g
     inkscape:groupmode="layer"
     id="layer3"
     inkscape:label="berlandieri"
     style="display:inline"
     transform="translate(-476.20282,35.510971)">
    <circle
       style="opacity:1;fill:none;fill-opacity:1;stroke:#8a0000;stroke-width:3;stroke-linecap:butt;stroke-miterlimit:4;stroke-dasharray:none;stroke-dashoffset:0;stroke-opacity:1"
       id="path1274"
       cx="622.27838"
       cy="352.23605"
       r="8.907115" />
    <circle
       r="8.907115"
       cy="174.03197"
       cx="701.27216"
       id="circle1276"
       style="opacity:1;fill:none;fill-opacity:1;stroke:#8a0000;stroke-width:3;stroke-linecap:butt;stroke-miterlimit:4;stroke-dasharray:none;stroke-dashoffset:0;stroke-opacity:1" />
    <circle
       style="opacity:1;fill:none;fill-opacity:1;stroke:#8a0000;stroke-width:3;stroke-linecap:butt;stroke-miterlimit:4;stroke-dasharray:none;stroke-dashoffset:0;stroke-opacity:1"
       id="circle1278"
       cx="726.54364"
       cy="123.09883"
       r="8.907115" />
    <circle
       r="8.907115"
       cy="233.19933"
       cx="770.30231"
       id="circle1280"
       style="opacity:1;fill:none;fill-opacity:1;stroke:#8a0000;stroke-width:3;stroke-linecap:butt;stroke-miterlimit:4;stroke-dasharray:none;stroke-dashoffset:0;stroke-opacity:1" />
    <circle
       style="opacity:1;fill:none;fill-opacity:1;stroke:#8a0000;stroke-width:3;stroke-linecap:butt;stroke-miterlimit:4;stroke-dasharray:none;stroke-dashoffset:0;stroke-opacity:1"
       id="circle1282"
       cx="797.91437"
       cy="218.62933"
       r="8.907115" />
    <circle
       r="8.907115"
       cy="202.99963"
       cx="824.63568"
       id="circle1284"
       style="opacity:1;fill:none;fill-opacity:1;stroke:#8a0000;stroke-width:3;stroke-linecap:butt;stroke-miterlimit:4;stroke-dasharray:none;stroke-dashoffset:0;stroke-opacity:1" />
    <circle
       style="opacity:1;fill:none;fill-opacity:1;stroke:#8a0000;stroke-width:3;stroke-linecap:butt;stroke-miterlimit:4;stroke-dasharray:none;stroke-dashoffset:0;stroke-opacity:1"
       id="circle1286"
       cx="858.03735"
       cy="203.08412"
       r="8.907115" />
    <circle
       r="8.907115"
       cy="203.44818"
       cx="890.99371"
       id="circle1288"
       style="opacity:1;fill:none;fill-opacity:1;stroke:#8a0000;stroke-width:3;stroke-linecap:butt;stroke-miterlimit:4;stroke-dasharray:none;stroke-dashoffset:0;stroke-opacity:1" />
    <circle
       style="opacity:1;fill:none;fill-opacity:1;stroke:#8a0000;stroke-width:3;stroke-linecap:butt;stroke-miterlimit:4;stroke-dasharray:none;stroke-dashoffset:0;stroke-opacity:1"
       id="circle1290"
       cx="944.4364"
       cy="362.16721"
       r="8.907115" />
  </g>
  <g
     transform="translate(-476.20282,35.510971)"
     style="display:inline"
     inkscape:label="riparia"
     id="g1310"
     inkscape:groupmode="layer">
    <circle
       r="8.907115"
       cy="362.38498"
       cx="622.27838"
       id="circle1292"
       style="opacity:1;fill:none;fill-opacity:1;stroke:#ff4344;stroke-width:3;stroke-linecap:butt;stroke-miterlimit:4;stroke-dasharray:none;stroke-dashoffset:0;stroke-opacity:1" />
    <circle
       style="opacity:1;fill:none;fill-opacity:1;stroke:#ff4344;stroke-width:3;stroke-linecap:butt;stroke-miterlimit:4;stroke-dasharray:none;stroke-dashoffset:0;stroke-opacity:1"
       id="circle1294"
       cx="700.99261"
       cy="149.90146"
       r="8.907115" />
    <circle
       r="8.907115"
       cy="127.29234"
       cx="727.26855"
       id="circle1296"
       style="opacity:1;fill:none;fill-opacity:1;stroke:#ff4344;stroke-width:3;stroke-linecap:butt;stroke-miterlimit:4;stroke-dasharray:none;stroke-dashoffset:0;stroke-opacity:1" />
    <circle
       style="opacity:1;fill:none;fill-opacity:1;stroke:#ff4344;stroke-width:3;stroke-linecap:butt;stroke-miterlimit:4;stroke-dasharray:none;stroke-dashoffset:0;stroke-opacity:1"
       id="circle1298"
       cx="770.46808"
       cy="239.9576"
       r="8.907115" />
    <circle
       r="8.907115"
       cy="257.0242"
       cx="798.19391"
       id="circle1300"
       style="opacity:1;fill:none;fill-opacity:1;stroke:#ff4344;stroke-width:3;stroke-linecap:butt;stroke-miterlimit:4;stroke-dasharray:none;stroke-dashoffset:0;stroke-opacity:1" />
    <circle
       style="opacity:1;fill:none;fill-opacity:1;stroke:#ff4344;stroke-width:3;stroke-linecap:butt;stroke-miterlimit:4;stroke-dasharray:none;stroke-dashoffset:0;stroke-opacity:1"
       id="circle1302"
       cx="824.19037"
       cy="251.93996"
       r="8.907115" />
    <circle
       r="8.907115"
       cy="240.84831"
       cx="858.76227"
       id="circle1304"
       style="opacity:1;fill:none;fill-opacity:1;stroke:#ff4344;stroke-width:3;stroke-linecap:butt;stroke-miterlimit:4;stroke-dasharray:none;stroke-dashoffset:0;stroke-opacity:1" />
    <circle
       style="opacity:1;fill:none;fill-opacity:1;stroke:#ff4344;stroke-width:3;stroke-linecap:butt;stroke-miterlimit:4;stroke-dasharray:none;stroke-dashoffset:0;stroke-opacity:1"
       id="circle1306"
       cx="890.2688"
       cy="218.22943"
       r="8.907115" />
    <circle
       r="8.907115"
       cy="359.53732"
       cx="942.98657"
       id="circle1308"
       style="opacity:1;fill:none;fill-opacity:1;stroke:#ff4344;stroke-width:3;stroke-linecap:butt;stroke-miterlimit:4;stroke-dasharray:none;stroke-dashoffset:0;stroke-opacity:1" />
  </g>
</svg>
